<svg width="24" height="25" viewBox="0 0 24 25" fill="none" xmlns="http://www.w3.org/2000/svg">
<path d="M9.33335 3.06671H4.00002C3.26364 3.06671 2.66669 3.66367 2.66669 4.40004V9.73338C2.66669 10.4698 3.26364 11.0667 4.00002 11.0667H9.33335C10.0697 11.0667 10.6667 10.4698 10.6667 9.73338V4.40004C10.6667 3.66367 10.0697 3.06671 9.33335 3.06671Z" fill="white"/>
<path d="M20 3.06671H14.6666C13.9303 3.06671 13.3333 3.66367 13.3333 4.40004V9.73338C13.3333 10.4698 13.9303 11.0667 14.6666 11.0667H20C20.7364 11.0667 21.3333 10.4698 21.3333 9.73338V4.40004C21.3333 3.66367 20.7364 3.06671 20 3.06671Z" fill="white"/>
<path d="M9.33335 13.7333H4.00002C3.26364 13.7333 2.66669 14.3303 2.66669 15.0667V20.4C2.66669 21.1364 3.26364 21.7333 4.00002 21.7333H9.33335C10.0697 21.7333 10.6667 21.1364 10.6667 20.4V15.0667C10.6667 14.3303 10.0697 13.7333 9.33335 13.7333Z" fill="white"/>
<path d="M20 13.7333H14.6666C13.9303 13.7333 13.3333 14.3303 13.3333 15.0667V20.4C13.3333 21.1364 13.9303 21.7333 14.6666 21.7333H20C20.7364 21.7333 21.3333 21.1364 21.3333 20.4V15.0667C21.3333 14.3303 20.7364 13.7333 20 13.7333Z" fill="white"/>
</svg>
