<svg width="11" height="18" viewBox="0 0 11 18" fill="none" xmlns="http://www.w3.org/2000/svg">
<path d="M5.8 7.9C3.53 7.31 2.8 6.7 2.8 5.75C2.8 4.66 3.81 3.9 5.5 3.9C6.92 3.9 7.63 4.44 7.89 5.3C8.01 5.7 8.34 6 8.76 6H9.06C9.72 6 10.19 5.35 9.96 4.73C9.54 3.55 8.56 2.57 7 2.19V1.5C7 0.67 6.33 0 5.5 0C4.67 0 4 0.67 4 1.5V2.16C2.06 2.58 0.5 3.84 0.5 5.77C0.5 8.08 2.41 9.23 5.2 9.9C7.7 10.5 8.2 11.38 8.2 12.31C8.2 13 7.71 14.1 5.5 14.1C3.85 14.1 3 13.51 2.67 12.67C2.52 12.28 2.18 12 1.77 12H1.49C0.82 12 0.35 12.68 0.6 13.3C1.17 14.69 2.5 15.51 4 15.83V16.5C4 17.33 4.67 18 5.5 18C6.33 18 7 17.33 7 16.5V15.85C8.95 15.48 10.5 14.35 10.5 12.3C10.5 9.46 8.07 8.49 5.8 7.9Z" fill="#4ABFCE"/>
</svg>
